<?xml version="1.0" standalone="no"?>
<!DOCTYPE svg PUBLIC "-//W3C//DTD SVG 1.1//EN" "http://www.w3.org/Graphics/SVG/1.1/DTD/svg11.dtd">
<svg xmlns="http://www.w3.org/2000/svg">
<metadata>Copyright (C) 2016 by original authors @ fontello.com</metadata>
<defs>
<font id="fontello" horiz-adv-x="1000" >
<font-face font-family="fontello" font-weight="400" font-stretch="normal" units-per-em="1000" ascent="850" descent="-150" />
<missing-glyph horiz-adv-x="1000" />
<glyph glyph-name="left-open-big" unicode="&#xe800;" d="M452-20q26-26 0-48-26-26-48 0l-392 394q-24 24 0 50l392 394q22 26 48 0 26-22 0-48l-358-372z" horiz-adv-x="465" />

<glyph glyph-name="right-open-big" unicode="&#xe801;" d="M13-20l358 370-358 372q-26 26 0 48 26 26 48 0l392-394q24-26 0-50l-392-394q-22-26-48 0-26 22 0 48z" horiz-adv-x="465" />

<glyph glyph-name="up-open-big" unicode="&#xe802;" d="M804 130l-372 358-370-358q-26-22-50 0-24 24 0 50l396 390q26 26 48 0l396-390q24-26 0-50-26-22-48 0z" horiz-adv-x="864" />

<glyph glyph-name="down-open-big" unicode="&#xe803;" d="M63 570l370-356 372 356q22 26 48 0 26-22 0-48l-396-392q-22-22-48 0l-396 392q-26 26 0 48 24 24 50 0z" horiz-adv-x="866" />

<glyph glyph-name="quote" unicode="&#xe804;" d="M146 680q146 0 184-146 38-140-40-302-80-168-224-204-32-8-66-8l0 70q112 0 182 108 54 86 26 146-16 36-62 36-60 0-103 44t-43 106 43 106 103 44z m420 0q146 0 184-146 38-140-40-302-80-168-224-204-32-8-66-8l0 70q112 0 182 108 54 86 26 146-16 36-62 36-60 0-103 44t-43 106 43 106 103 44z" horiz-adv-x="762" />

<glyph glyph-name="calendar" unicode="&#xe805;" d="M71-79h161v161h-161v-161z m197 0h178v161h-178v-161z m-197 197h161v178h-161v-178z m197 0h178v178h-178v-178z m-197 214h161v161h-161v-161z m411-411h179v161h-179v-161z m-214 411h178v161h-178v-161z m428-411h161v161h-161v-161z m-214 197h179v178h-179v-178z m-196 482v161q0 7-6 12t-12 6h-36q-7 0-12-6t-6-12v-161q0-7 6-13t12-5h36q7 0 12 5t6 13z m410-482h161v178h-161v-178z m-214 214h179v161h-179v-161z m214 0h161v161h-161v-161z m18 268v161q0 7-5 12t-13 6h-35q-8 0-13-6t-5-12v-161q0-7 5-13t13-5h35q8 0 13 5t5 13z m215 36v-715q0-29-22-50t-50-21h-786q-29 0-50 21t-21 50v715q0 29 21 50t50 21h72v54q0 37 26 63t63 26h36q37 0 63-26t26-63v-54h214v54q0 37 27 63t63 26h35q37 0 63-26t27-63v-54h71q29 0 50-21t22-50z" horiz-adv-x="928.6" />

<glyph glyph-name="emo-happy" unicode="&#xe806;" d="M261 800c-60 0-109-65-109-144 0-80 49-145 109-145s110 65 110 145c0 79-49 144-110 144z m477 0c-61 0-110-65-110-144 0-80 49-145 110-145 60 0 110 65 110 145 0 79-50 144-110 144z m208-599c-13 0-27-5-37-16-4-4-8-8-12-12-111-109-253-164-396-165-142-2-285 50-396 155l-3 3-12 12c-21 21-54 20-75-1-20-21-20-55 1-76 3-4 8-8 14-14l3-3c132-124 301-186 469-184 169 1 337 67 468 195 5 5 9 10 14 14 20 22 20 56-1 77-10 10-23 15-37 15z" horiz-adv-x="999" />

<glyph glyph-name="cancel" unicode="&#xe807;" d="M724 112q0-22-15-38l-76-76q-16-15-38-15t-38 15l-164 165-164-165q-16-15-38-15t-38 15l-76 76q-16 16-16 38t16 38l164 164-164 164q-16 16-16 38t16 38l76 76q16 16 38 16t38-16l164-164 164 164q16 16 38 16t38-16l76-76q15-15 15-38t-15-38l-164-164 164-164q15-15 15-38z" horiz-adv-x="785.7" />

<glyph glyph-name="clock" unicode="&#xe808;" d="M500 546v-250q0-7-5-12t-13-5h-178q-8 0-13 5t-5 12v36q0 8 5 13t13 5h125v196q0 8 5 13t12 5h36q8 0 13-5t5-13z m232-196q0 83-41 152t-110 111-152 41-153-41-110-111-41-152 41-152 110-111 153-41 152 41 110 111 41 152z m125 0q0-117-57-215t-156-156-215-58-216 58-155 156-58 215 58 215 155 156 216 58 215-58 156-156 57-215z" horiz-adv-x="857.1" />

<glyph glyph-name="menu" unicode="&#xe819;" d="M991 348c0-33-27-60-60-60h-862c-33 0-60 27-60 60v6c0 34 27 60 60 60h862c33 0 60-26 60-60v-6z" horiz-adv-x="1000" />

<glyph glyph-name="font-default" unicode="&#xe81b;" d="M483 310l14 47c13 40 23 86 33 130h3c10-44 24-87 37-130l13-47h-100z m147-160h73l-130 393h-80l-130-393h70l30 107h130l37-107z" horiz-adv-x="1000" />

<glyph glyph-name="font-bigger" unicode="&#xe81c;" d="M360 297l17 53c13 47 26 97 40 143h3c13-46 27-96 40-143l17-53h-117z m163-180h84l-144 436h-90l-143-436h80l33 116h147l33-116z m167 273h37v77h73v33h-73v80h-37v-77h-73v-33h73v-80z" horiz-adv-x="1000" />

<glyph glyph-name="font-biggest" unicode="&#xe81d;" d="M240 313l17 60c16 50 30 104 43 160h3c14-53 30-106 44-160l16-60h-123z m180-196h90l-157 480h-100l-156-480h86l37 130h160l40-130z m173 273h37v77h73v33h-73v80h-37v-77h-73v-33h73v-80z m210 0h37v77h73v33h-73v80h-37v-77h-73v-33h73v-80z" horiz-adv-x="1000" />

<glyph glyph-name="contrast" unicode="&#xe81e;" d="M500 833c-267 0-483-216-483-483s216-483 483-483 483 216 483 483-216 483-483 483z m-390-483c0 190 137 347 313 383v-776c-183 36-313 203-313 393z" horiz-adv-x="1000" />

<glyph glyph-name="protected" unicode="&#xe81f;" d="M777 413h-30v214c0 120-110 213-247 213-137 0-247-97-247-213v-214h-30c-50 0-93-40-93-93v-370c0-50 40-93 93-93h550c50 0 94 40 94 93v340c0 50-40 123-90 123z m-217-353v-77c0-33-27-60-60-60-33 0-60 27-60 60v77c-37 20-60 60-60 107 0 66 53 123 123 123 67 0 124-53 124-123-4-47-30-84-67-107z m63 353h-246v214c0 50 56 90 123 90 67 0 123-40 123-94v-210z" horiz-adv-x="1000" />

<glyph glyph-name="search" unicode="&#xe820;" d="M907 0l-234 233c44 57 64 124 64 194 0 86-34 166-94 230-60 60-143 93-226 93-87 0-167-33-230-93-127-127-127-330 0-457 60-60 143-93 230-93 80 0 153 26 210 80l233-234 47 47z m-670 247c-100 100-100 260 0 360 46 46 110 73 180 73 66 0 130-27 180-73s73-110 73-180c0-67-27-130-73-180-47-47-114-74-180-74-70 0-134 27-180 74z" horiz-adv-x="1000" />

<glyph glyph-name="doc-text-inv" unicode="&#xf15c;" d="M819 584q8-7 16-20h-264v264q13-8 21-16z m-265-91h303v-589q0-23-15-38t-38-16h-750q-23 0-38 16t-16 38v892q0 23 16 38t38 16h446v-304q0-22 16-38t38-15z m89-411v36q0 8-5 13t-13 5h-393q-8 0-13-5t-5-13v-36q0-8 5-13t13-5h393q8 0 13 5t5 13z m0 143v36q0 8-5 13t-13 5h-393q-8 0-13-5t-5-13v-36q0-8 5-13t13-5h393q8 0 13 5t5 13z m0 143v36q0 7-5 12t-13 5h-393q-8 0-13-5t-5-12v-36q0-8 5-13t13-5h393q8 0 13 5t5 13z" horiz-adv-x="857.1" />
</font>
</defs>
</svg>